{
    "/js/app.js": "/js/app.js",
    "/css/app.css": "/css/app.css",
    "/0.1234481f6eac499f052a.hot-update.js": "/0.1234481f6eac499f052a.hot-update.js",
    "/0.3e7235ecf601566de82c.hot-update.js": "/0.3e7235ecf601566de82c.hot-update.js",
    "/0.f79f5a3c2f920b22602d.hot-update.js": "/0.f79f5a3c2f920b22602d.hot-update.js",
    "/0.6684aee0c5c4af7c68ec.hot-update.js": "/0.6684aee0c5c4af7c68ec.hot-update.js",
    "/0.4a37ca1f19c0572d27c7.hot-update.js": "/0.4a37ca1f19c0572d27c7.hot-update.js",
    "/0.795bf54cbfac8508364e.hot-update.js": "/0.795bf54cbfac8508364e.hot-update.js"
}
